<?xml version="1.0" standalone="no"?>
<!DOCTYPE svg PUBLIC "-//W3C//DTD SVG 20010904//EN"
 "http://www.w3.org/TR/2001/REC-SVG-20010904/DTD/svg10.dtd">
<svg version="1.0" xmlns="http://www.w3.org/2000/svg"
 width="780.000000pt" height="780.000000pt" viewBox="0 0 780.000000 780.000000"
 preserveAspectRatio="xMidYMid meet">
<metadata>
Created by potrace 1.14, written by Peter Selinger 2001-2017
</metadata>
<g transform="translate(0.000000,780.000000) scale(0.100000,-0.100000)"
fill="#000000" stroke="none">
<path d="M815 6733 c-158 -32 -277 -74 -353 -125 -24 -15 -45 -28 -48 -28 -17
0 -175 -146 -207 -192 -9 -12 -30 -43 -48 -67 -50 -71 -107 -195 -125 -272
-34 -141 -33 -119 -33 -2149 0 -1311 3 -2012 10 -2045 6 -27 12 -61 15 -75 11
-58 73 -214 97 -245 4 -5 22 -32 40 -60 30 -48 73 -99 128 -154 109 -107 280
-200 434 -236 17 -4 39 -10 50 -13 11 -3 388 -8 838 -9 l817 -4 0 48 c3 368 0
1097 -5 1101 -3 3 -238 6 -523 7 l-517 1 -55 26 c-87 41 -134 94 -162 183 -13
44 -15 213 -14 1505 l1 1455 28 54 c33 65 86 117 147 145 43 20 65 21 573 26
l529 5 -1 530 c0 292 0 545 -1 563 l0 32 -797 -1 c-439 -1 -807 -3 -818 -6z"/>
<path d="M4530 6162 l0 -579 -72 2 c-78 3 -230 15 -238 20 -3 2 -26 6 -50 10
-25 3 -53 8 -62 11 -9 3 -25 6 -35 8 -10 2 -45 11 -78 20 -33 10 -67 19 -75
21 -8 2 -16 4 -17 5 -2 2 -6 3 -10 5 -10 2 -32 11 -123 47 -89 36 -252 120
-297 154 -17 13 -36 24 -42 24 -6 0 -11 4 -11 8 0 4 -14 16 -32 26 -17 11 -44
31 -59 45 -39 37 -68 61 -74 61 -3 0 -5 -254 -5 -563 l0 -564 28 -24 c104 -89
245 -184 356 -238 112 -54 195 -91 206 -91 6 0 18 -4 28 -9 17 -10 133 -45
182 -55 14 -3 48 -11 75 -17 28 -6 66 -12 85 -14 19 -2 60 -8 90 -12 59 -9
386 -9 460 -1 71 8 151 19 174 24 12 2 37 7 56 10 28 4 131 28 260 59 86 21
291 90 605 205 286 104 478 160 610 176 17 2 36 6 43 9 13 5 209 19 247 18
203 -6 453 -55 620 -122 148 -60 275 -117 275 -122 0 -4 14 -10 30 -14 17 -4
36 -12 43 -18 18 -17 55 -37 67 -37 7 0 10 190 10 564 l0 564 -156 77 c-86 42
-162 78 -168 79 -6 1 -28 10 -50 19 -21 9 -40 17 -42 17 -1 0 -15 5 -31 11
-15 6 -28 10 -28 9 0 -2 -16 4 -35 12 -19 8 -38 16 -42 16 -5 1 -9 2 -10 3 -2
0 -10 2 -18 4 -8 2 -55 13 -105 25 -214 50 -457 57 -660 19 -27 -5 -63 -12
-79 -15 -16 -3 -32 -7 -36 -9 -4 -2 -20 -7 -36 -9 -54 -10 -88 -19 -114 -29
-20 -7 -92 -30 -105 -33 -14 -3 -244 -86 -327 -118 -38 -14 -69 -25 -70 -23 0
1 -2 205 -3 452 l-2 450 -576 3 -577 2 0 -578z"/>
<path d="M5618 4090 c-27 -10 -48 -16 -48 -13 0 3 -6 1 -12 -5 -11 -8 -169
-62 -228 -78 -8 -2 -40 -11 -70 -19 -66 -19 -259 -61 -315 -69 -23 -4 -52 -9
-65 -11 -62 -12 -180 -23 -273 -25 -41 -1 -70 -6 -73 -13 -2 -7 -5 -327 -7
-712 -2 -385 -6 -707 -9 -715 -30 -85 -73 -139 -139 -174 -27 -15 -59 -30 -71
-33 -13 -3 -255 -6 -538 -7 l-515 -2 -3 -577 -2 -578 817 4 c450 2 827 6 838
9 11 4 22 7 25 8 3 1 8 2 12 1 19 -2 152 46 221 80 92 46 163 97 239 171 56
54 138 160 138 177 0 5 4 11 8 13 21 8 108 225 117 291 1 12 6 45 10 72 8 49
14 2188 7 2213 -5 15 -5 15 -64 -8z"/>
</g>
</svg>
