<?xml version="1.0" encoding="utf-8"?>
<!-- Generator: Adobe Illustrator 16.0.0, SVG Export Plug-In . SVG Version: 6.00 Build 0)  -->
<!DOCTYPE svg PUBLIC "-//W3C//DTD SVG 1.1//EN" "http://www.w3.org/Graphics/SVG/1.1/DTD/svg11.dtd">
<svg version="1.1" id="Layer_1" xmlns="http://www.w3.org/2000/svg" xmlns:xlink="http://www.w3.org/1999/xlink" x="0px" y="0px"
	 width="150.195px" height="125.844px" viewBox="0 0 150.195 125.844" enable-background="new 0 0 150.195 125.844"
	 xml:space="preserve">
<g>
	<g>
		<g opacity="0.4">
			<path fill="#26899D" d="M67.522,44.927H49.854H31.065H13.397C5.995,44.927,0,50.928,0,58.324v54.123
				c0,7.398,5.996,13.396,13.396,13.396h19.192h15.739h19.193c7.402,0,13.396-5.998,13.396-13.396V58.324
				C80.918,50.928,74.924,44.927,67.522,44.927z"/>
		</g>
		<g>
			<path fill="#FFFFFF" d="M98.519,97.125c0,5.463-4.428,9.889-9.891,9.889H43.622c-5.462,0-9.892-4.426-9.892-9.889V30.566
				c0-5.463,4.429-9.892,9.892-9.892h45.006c5.463,0,9.891,4.429,9.891,9.892V97.125z"/>
			<path d="M88.631,108.513H43.623c-6.28,0-11.392-5.109-11.392-11.391V30.565c0-6.281,5.11-11.392,11.392-11.392h45.007
				c6.279,0,11.391,5.108,11.391,11.392v66.558C100.019,103.404,94.91,108.513,88.631,108.513z M43.622,22.176
				c-4.626,0-8.392,3.764-8.392,8.392v66.559c0,4.627,3.765,8.389,8.392,8.389h45.006c4.627,0,8.391-3.762,8.391-8.389V30.568
				c0-4.628-3.764-8.392-8.391-8.392H43.622z"/>
		</g>
		<g>
			<rect x="44.788" y="68.023" fill="#80C342" width="9.597" height="9.596"/>
		</g>
		<g>
			<rect x="45.66" y="86.845" fill="#FFFFFF" width="7.852" height="7.854"/>
			<path d="M55.013,96.197H44.161V85.345h10.852V96.197z M47.16,93.197h4.852v-4.852H47.16V93.197z"/>
		</g>
		<g>
			<rect x="60.927" y="93.197" width="21.081" height="3"/>
		</g>
		<g>
			<rect x="60.927" y="74.617" width="21.081" height="3"/>
		</g>
		<g opacity="0.4">
			<g>
				<g>
					<g>
						<g>
							<circle fill="#80C342" cx="104.912" cy="45.283" r="45.283"/>
						</g>
					</g>
				</g>
			</g>
		</g>
		<g>
			<g>
				<g>
					<g>
						<g>
							<g>
								<g>
									<path fill="#80C342" d="M100.447,63.986l31.275,38.242c1.336,1.633,1.094,4.039-0.539,5.373l-5.912,4.836
										c-1.633,1.336-4.041,1.096-5.375-0.537L88.621,73.658l-1.883-14.369L100.447,63.986z"/>
								</g>
							</g>
						</g>
					</g>
					<g>
						<g>
							<g>
								<g>
									<path d="M122.855,114.802c-1.604,0-3.104-0.711-4.119-1.951L87.461,74.609c-0.178-0.217-0.289-0.479-0.326-0.754
										l-1.883-14.369c-0.066-0.516,0.137-1.028,0.537-1.355c0.402-0.329,0.945-0.429,1.438-0.259l13.709,4.697
										c0.264,0.091,0.498,0.253,0.674,0.47l31.277,38.244c0.898,1.1,1.314,2.482,1.174,3.896
										c-0.143,1.414-0.824,2.688-1.924,3.586l-5.912,4.836C125.273,114.375,124.078,114.802,122.855,114.802z M90.052,73.039
										l31.006,37.912c0.783,0.957,2.303,1.111,3.266,0.326l5.912-4.836c0.479-0.393,0.777-0.947,0.838-1.563
										c0.063-0.615-0.119-1.221-0.512-1.697L99.556,65.267l-11.018-3.773L90.052,73.039z"/>
								</g>
							</g>
						</g>
					</g>
				</g>
			</g>
			<g>
				<g>
					<g>
						<g>
							<g>
								<path d="M129.746,110.281c-0.436,0-0.865-0.188-1.162-0.553l-25.725-31.451c-0.523-0.643-0.43-1.586,0.211-2.111
									c0.641-0.521,1.586-0.43,2.111,0.213l25.725,31.453c0.523,0.641,0.43,1.586-0.211,2.109
									C130.416,110.17,130.08,110.281,129.746,110.281z"/>
							</g>
						</g>
					</g>
				</g>
			</g>
			<g>
				<g>
					<g>
						<g>
							<g>
								<polygon points="88.566,68.863 95.914,62.854 86.738,59.289 								"/>
							</g>
						</g>
					</g>
				</g>
			</g>
		</g>
	</g>
	<g>
		<g>
			<g>
				<g>
					<g>
						<path fill="#80C342" d="M68.125,45.027c0-1.367-1.107-2.475-2.476-2.475h-4.996c1.598-1.171,2.639-3.054,2.639-5.187
							c0-3.55-2.878-6.429-6.427-6.429c-3.552,0-6.429,2.879-6.429,6.429c0,2.133,1.042,4.016,2.64,5.187h-4.998
							c-1.365,0-2.475,1.105-2.475,2.475l-1.566,11.126c0,1.366,1.107,2.476,2.476,2.476h20.719c1.367,0,2.476-1.107,2.476-2.476
							L68.125,45.027z"/>
					</g>
				</g>
			</g>
		</g>
		<g>
			<g>
				<g>
					<g>
						<path d="M67.232,60.128H46.513c-2.191,0-3.976-1.783-3.976-3.976c0-0.07,0.005-0.141,0.016-0.209l1.554-11.034
							c0.063-2.138,1.82-3.855,3.974-3.855h1.775c-0.594-1.125-0.917-2.391-0.917-3.687c0-4.371,3.558-7.929,7.929-7.929
							s7.927,3.558,7.927,7.929c0,1.296-0.323,2.562-0.917,3.687h1.775c2.151,0,3.91,1.719,3.973,3.854l1.567,11.033
							c0.011,0.068,0.016,0.141,0.016,0.211C71.206,58.345,69.424,60.128,67.232,60.128z M45.54,56.234
							c0.042,0.5,0.461,0.895,0.973,0.895h20.719c0.511,0,0.931-0.395,0.973-0.894l-1.563-10.997
							c-0.01-0.068-0.016-0.142-0.016-0.211c0-0.537-0.438-0.975-0.976-0.975h-4.996c-0.648,0-1.225-0.417-1.427-1.033
							s0.017-1.293,0.539-1.677c1.288-0.942,2.025-2.394,2.025-3.977c0-2.717-2.21-4.929-4.927-4.929
							c-2.718,0-4.929,2.212-4.929,4.929c0,1.583,0.738,3.031,2.025,3.977c0.523,0.384,0.741,1.062,0.539,1.677
							c-0.201,0.616-0.776,1.033-1.426,1.033h-4.998c-0.537,0-0.975,0.438-0.975,0.975c0,0.069-0.005,0.14-0.016,0.209L45.54,56.234
							z"/>
					</g>
				</g>
			</g>
		</g>
	</g>
</g>
</svg>
