<?xml version="1.0" encoding="utf-8"?>
<!-- Generator: Adobe Illustrator 16.0.0, SVG Export Plug-In . SVG Version: 6.00 Build 0)  -->
<!DOCTYPE svg PUBLIC "-//W3C//DTD SVG 1.1//EN" "http://www.w3.org/Graphics/SVG/1.1/DTD/svg11.dtd">
<svg version="1.1" id="Layer_1" xmlns="http://www.w3.org/2000/svg" xmlns:xlink="http://www.w3.org/1999/xlink" x="0px" y="0px"
	 width="162.957px" height="125.693px" viewBox="0 0 162.957 125.693" enable-background="new 0 0 162.957 125.693"
	 xml:space="preserve">
<g>
	<g>
		<g opacity="0.2">
			<path fill="#26899D" d="M88.745,0H65.524H40.831H17.61C7.88,0,0,7.887,0,17.61v71.129c0,9.726,7.881,17.606,17.609,17.606h25.223
				H63.52h25.227c9.729,0,17.604-7.884,17.604-17.606V17.61C106.35,7.886,98.471,0,88.745,0z"/>
		</g>
		<g>
			<g>
				<line fill="none" x1="93.697" y1="25.231" x2="47.174" y2="25.231"/>
				<path d="M93.697,26.731H47.176c-0.828,0-1.5-0.674-1.5-1.5c0-0.828,0.672-1.5,1.5-1.5h46.521c0.828,0,1.5,0.672,1.5,1.5
					C95.197,26.058,94.525,26.731,93.697,26.731z"/>
			</g>
			<g>
				<line fill="none" x1="93.697" y1="84.138" x2="47.174" y2="84.138"/>
				<path d="M93.697,85.638H47.176c-0.828,0-1.5-0.673-1.5-1.5c0-0.828,0.672-1.5,1.5-1.5h46.521c0.828,0,1.5,0.672,1.5,1.5
					C95.197,84.966,94.525,85.638,93.697,85.638z"/>
			</g>
			<g>
				<line fill="none" x1="93.697" y1="64.503" x2="47.174" y2="64.503"/>
				<path d="M93.697,66.003H47.176c-0.828,0-1.5-0.672-1.5-1.5s0.672-1.5,1.5-1.5h46.521c0.828,0,1.5,0.672,1.5,1.5
					S94.525,66.003,93.697,66.003z"/>
			</g>
			<g>
				<line fill="none" x1="93.697" y1="44.866" x2="47.174" y2="44.866"/>
				<path d="M93.697,46.366H47.176c-0.828,0-1.5-0.672-1.5-1.5s0.672-1.5,1.5-1.5h46.521c0.828,0,1.5,0.672,1.5,1.5
					S94.525,46.366,93.697,46.366z"/>
			</g>
		</g>
		<g opacity="0.4">
			<circle fill="#80C342" cx="104.818" cy="74.676" r="45.284"/>
		</g>
		<g>
			<g>
				<g>
					<path fill="#80C342" d="M133.833,88.444c1.021-1.023,2.679-1.023,3.699,0l23.159,23.158c1.021,1.021,1.021,2.681,0,3.701
						l-8.123,8.124c-1.021,1.021-2.682,1.021-3.7,0l-23.16-23.16c-1.021-1.021-1.021-2.682,0-3.698L133.833,88.444z"/>
					<path d="M150.718,125.694c-1.1,0-2.134-0.429-2.909-1.204l-23.16-23.16c-0.777-0.777-1.207-1.813-1.205-2.913
						c0-1.1,0.429-2.133,1.207-2.909l8.123-8.123c0.772-0.775,1.81-1.207,2.908-1.207c1.102,0,2.137,0.431,2.911,1.208
						l23.159,23.158c1.604,1.604,1.604,4.217,0.001,5.822l-8.124,8.124C152.854,125.266,151.82,125.694,150.718,125.694z
						 M135.682,89.177c-0.298,0-0.574,0.115-0.785,0.325l-8.127,8.127c-0.211,0.211-0.326,0.491-0.326,0.789s0.115,0.578,0.326,0.79
						l23.158,23.16c0.424,0.422,1.158,0.422,1.58,0l8.123-8.124c0.438-0.438,0.438-1.146,0-1.58l-23.16-23.16
						C136.259,89.292,135.98,89.177,135.682,89.177z"/>
				</g>
				<g>
					<path fill="#80C342" d="M91.587,54.322c-11.242,11.239-11.242,29.467,0,40.708c11.24,11.243,29.466,11.243,40.707,0
						c11.242-11.241,11.242-29.469,0-40.708C121.051,43.079,102.829,43.079,91.587,54.322z M128.633,91.37
						c-9.219,9.22-24.168,9.22-33.387,0c-9.221-9.221-9.221-24.169,0-33.389c9.219-9.224,24.168-9.224,33.387,0
						C137.855,67.201,137.855,82.15,128.633,91.37z"/>
					<path d="M111.941,104.962c-8.09,0-15.693-3.15-21.414-8.872c-5.723-5.72-8.87-13.324-8.87-21.413
						c0-8.091,3.149-15.693,8.87-21.415s13.324-8.871,21.414-8.871c8.088,0,15.691,3.149,21.414,8.871
						c5.722,5.722,8.871,13.324,8.871,21.415c0,8.089-3.149,15.693-8.871,21.413C127.633,101.81,120.029,104.962,111.941,104.962z
						 M111.941,47.389c-7.287,0-14.142,2.838-19.293,7.991c-5.153,5.153-7.991,12.007-7.991,19.294s2.838,14.143,7.991,19.294
						c5.151,5.153,12.006,7.992,19.293,7.992s14.14-2.839,19.293-7.992c5.152-5.151,7.992-12.007,7.992-19.294
						s-2.84-14.141-7.992-19.294C126.081,50.228,119.229,47.389,111.941,47.389z M111.941,99.785
						c-6.707,0-13.014-2.612-17.754-7.354c-4.742-4.741-7.354-11.05-7.354-17.755c0-6.707,2.611-13.014,7.354-17.756
						c4.74-4.742,11.047-7.354,17.754-7.354s13.014,2.609,17.754,7.354c4.744,4.742,7.354,11.049,7.354,17.756
						c0,6.705-2.608,13.014-7.354,17.755C124.954,97.173,118.648,99.785,111.941,99.785z M111.941,52.567
						c-5.904,0-11.457,2.3-15.633,6.476c-4.178,4.177-6.478,9.729-6.478,15.635c0,5.904,2.3,11.457,6.478,15.634
						c4.176,4.178,9.729,6.478,15.633,6.478s11.457-2.3,15.634-6.478c4.176-4.177,6.476-9.729,6.476-15.634
						c0-5.906-2.3-11.458-6.476-15.635C123.398,54.867,117.846,52.567,111.941,52.567z"/>
				</g>
			</g>
			<g>
				<circle fill="#FFFFFF" cx="111.941" cy="74.677" r="23.609"/>
				<path d="M111.941,99.785c-6.707,0-13.014-2.612-17.754-7.354c-4.742-4.741-7.354-11.05-7.354-17.755
					c0-6.707,2.611-13.014,7.354-17.756c4.74-4.742,11.047-7.354,17.754-7.354s13.014,2.609,17.754,7.354
					c4.744,4.742,7.354,11.049,7.354,17.756c0,6.705-2.61,13.014-7.354,17.755C124.954,97.173,118.648,99.785,111.941,99.785z
					 M111.941,52.567c-5.904,0-11.457,2.3-15.633,6.476c-4.178,4.177-6.478,9.729-6.478,15.635c0,5.904,2.3,11.457,6.478,15.634
					c4.176,4.178,9.729,6.478,15.633,6.478s11.457-2.3,15.634-6.478c4.176-4.177,6.478-9.729,6.478-15.634
					c0-5.906-2.302-11.458-6.478-15.635C123.398,54.867,117.846,52.567,111.941,52.567z"/>
			</g>
			<g>
				<path d="M129.27,71.832c-0.783-4.424-3.244-8.276-6.928-10.852s-8.146-3.563-12.566-2.775l-0.523-2.953
					c5.215-0.924,10.475,0.238,14.813,3.271c4.34,3.031,7.235,7.572,8.16,12.785L129.27,71.832z"/>
			</g>
		</g>
	</g>
	<g>
		<g>
			<g>
				<g>
					<defs>
						<circle id="SVGID_1_" cx="111.941" cy="74.677" r="23.609"/>
					</defs>
					<clipPath id="SVGID_2_">
						<use xlink:href="#SVGID_1_"  overflow="visible"/>
					</clipPath>
					<g clip-path="url(#SVGID_2_)">
						<g>
							<path fill="#FFFFFF" d="M129.266,100.691c0,1.845-1.494,3.341-3.342,3.341H97.956c-1.847,0-3.343-1.496-3.343-3.341
								L96.73,85.67c0-1.845,1.494-3.34,3.338-3.34h23.722c1.847,0,3.342,1.495,3.342,3.34L129.266,100.691z"/>
							<path d="M125.924,105.531H97.956c-2.67,0-4.843-2.172-4.843-4.841l0.016-0.209l2.104-14.927
								c0.063-2.614,2.209-4.727,4.838-4.727h23.722c2.631,0,4.778,2.107,4.841,4.726l2.137,15.137
								C130.766,103.36,128.593,105.531,125.924,105.531z M96.118,100.781c0.047,0.974,0.854,1.751,1.84,1.751h27.97
								c0.983,0,1.79-0.777,1.84-1.75l-2.134-15.11c0-1.015-0.825-1.84-1.842-1.84H100.07c-1.014,0-1.838,0.825-1.838,1.84
								l-0.018,0.209L96.118,100.781z"/>
						</g>
						<g>
							<g>
								<circle fill="#FFFFFF" cx="111.932" cy="75.333" r="8.677"/>
								<path d="M111.932,85.51c-5.611,0-10.18-4.563-10.18-10.179c0-5.61,4.566-10.177,10.18-10.177
									c5.61,0,10.178,4.563,10.178,10.177C122.109,80.946,117.543,85.51,111.932,85.51z M111.932,68.156
									c-3.957,0-7.18,3.22-7.18,7.177c0,3.958,3.223,7.179,7.18,7.179s7.178-3.221,7.178-7.179
									C119.109,71.376,115.889,68.156,111.932,68.156z"/>
							</g>
							<g>
								<path fill="#80C342" d="M115.77,77.518c-0.668,1.453-2.138,2.465-3.838,2.465c-1.705,0-3.177-1.015-3.842-2.47
									L115.77,77.518z"/>
							</g>
						</g>
						<g>
							<path fill="none" stroke="#000000" stroke-width="3" stroke-miterlimit="10" d="M115.396,104.031"/>
						</g>
						<g>
							<path fill="none" stroke="#000000" stroke-width="3" stroke-miterlimit="10" d="M119.102,104.031"/>
						</g>
						<g>
							<polygon points="120.738,104.031 117.738,104.031 117.738,102.5 111.88,100.804 112.713,97.924 120.738,100.244 							"/>
						</g>
						<g>
							<path fill="none" stroke="#000000" stroke-width="3" stroke-miterlimit="10" d="M111.932,84.01"/>
						</g>
					</g>
				</g>
			</g>
		</g>
	</g>
	<g>
		<g>
			<circle fill="#FFFFFF" cx="32.813" cy="21.626" r="5.761"/>
			<path d="M32.813,28.537c-3.813,0-6.911-3.103-6.911-6.911c0-3.808,3.101-6.911,6.911-6.911s6.909,3.104,6.909,6.911
				C39.722,25.434,36.623,28.537,32.813,28.537z M32.813,17.015c-2.542,0-4.61,2.067-4.61,4.609s2.068,4.61,4.61,4.61
				s4.608-2.068,4.608-4.61S35.355,17.015,32.813,17.015z"/>
		</g>
		<g>
			<circle fill="#FFFFFF" cx="32.813" cy="41.196" r="5.761"/>
			<path d="M32.813,48.108c-3.813,0-6.911-3.104-6.911-6.911c0-3.812,3.101-6.911,6.911-6.911s6.909,3.102,6.909,6.911
				C39.722,45.006,36.623,48.108,32.813,48.108z M32.813,36.586c-2.542,0-4.61,2.068-4.61,4.61s2.068,4.608,4.61,4.608
				s4.608-2.066,4.608-4.608S35.355,36.586,32.813,36.586z"/>
		</g>
		<g>
			<circle fill="#FFFFFF" cx="32.813" cy="60.766" r="5.761"/>
			<path d="M32.813,67.677c-3.813,0-6.911-3.102-6.911-6.911c0-3.811,3.101-6.909,6.911-6.909s6.909,3.101,6.909,6.909
				C39.722,64.576,36.623,67.677,32.813,67.677z M32.813,56.156c-2.542,0-4.61,2.066-4.61,4.608s2.068,4.609,4.61,4.609
				s4.608-2.067,4.608-4.609S35.355,56.156,32.813,56.156z"/>
		</g>
		<g>
			<circle fill="#FFFFFF" cx="32.813" cy="80.337" r="5.761"/>
			<path d="M32.813,87.248c-3.813,0-6.911-3.101-6.911-6.911c0-3.81,3.101-6.91,6.911-6.91s6.909,3.103,6.909,6.91
				C39.722,84.148,36.623,87.248,32.813,87.248z M32.813,75.726c-2.542,0-4.61,2.067-4.61,4.609s2.068,4.61,4.61,4.61
				s4.608-2.068,4.608-4.61S35.355,75.726,32.813,75.726z"/>
		</g>
	</g>
</g>
</svg>
